{
  "$schema": "https://docs.renovatebot.com/renovate-schema.json",
  "extends": [
    "config:base"
  ],
  "pinDigests": true,
  "prHourlyLimit": 0,
  "labels": [
    "renovate-bot"
  ],
  "automerge": true,
  "automergeType": "pr",
  "gitLabAutomerge": true,
  "postUpgradeTasks": {
    "commands": [],
    "fileFilters": [
      "**/**"
    ]
  },
  "dependencyDashboard": false,
  "kubernetes": {
    "fileMatch": [
      "^container-image-builder/chart/templates.*\\.ya?ml(\\.tpl)?$"
    ]
  }
}
